(kicad_sch (version 20230121) (generator eeschema)

  (uuid 852f29eb-415c-4d8a-93d8-ad60c4834e6e)

  (paper "A4")

  (title_block
    (title "VHS SGM8302 RF Amp")
    (date "2023-08-18")
    (rev "1.0")
    (company "Rene Wolf")
    (comment 1 "CC BY-SA 4.0")
  )

  (lib_symbols
    (symbol "Connector:Conn_01x01_Pin" (pin_names (offset 1.016) hide) (in_bom yes) (on_board yes)
      (property "Reference" "J" (at 0 2.54 0)
        (effects (font (size 1.27 1.27)))
      )
      (property "Value" "Conn_01x01_Pin" (at 0 -2.54 0)
        (effects (font (size 1.27 1.27)))
      )
      (property "Footprint" "" (at 0 0 0)
        (effects (font (size 1.27 1.27)) hide)
      )
      (property "Datasheet" "~" (at 0 0 0)
        (effects (font (size 1.27 1.27)) hide)
      )
      (property "ki_locked" "" (at 0 0 0)
        (effects (font (size 1.27 1.27)))
      )
      (property "ki_keywords" "connector" (at 0 0 0)
        (effects (font (size 1.27 1.27)) hide)
      )
      (property "ki_description" "Generic connector, single row, 01x01, script generated" (at 0 0 0)
        (effects (font (size 1.27 1.27)) hide)
      )
      (property "ki_fp_filters" "Connector*:*_1x??_*" (at 0 0 0)
        (effects (font (size 1.27 1.27)) hide)
      )
      (symbol "Conn_01x01_Pin_1_1"
        (polyline
          (pts
            (xy 1.27 0)
            (xy 0.8636 0)
          )
          (stroke (width 0.1524) (type default))
          (fill (type none))
        )
        (rectangle (start 0.8636 0.127) (end 0 -0.127)
          (stroke (width 0.1524) (type default))
          (fill (type outline))
        )
        (pin passive line (at 5.08 0 180) (length 3.81)
          (name "Pin_1" (effects (font (size 1.27 1.27))))
          (number "1" (effects (font (size 1.27 1.27))))
        )
      )
    )
    (symbol "Connector:Conn_01x03_Pin" (pin_names (offset 1.016) hide) (in_bom yes) (on_board yes)
      (property "Reference" "J" (at 0 5.08 0)
        (effects (font (size 1.27 1.27)))
      )
      (property "Value" "Conn_01x03_Pin" (at 0 -5.08 0)
        (effects (font (size 1.27 1.27)))
      )
      (property "Footprint" "" (at 0 0 0)
        (effects (font (size 1.27 1.27)) hide)
      )
      (property "Datasheet" "~" (at 0 0 0)
        (effects (font (size 1.27 1.27)) hide)
      )
      (property "ki_locked" "" (at 0 0 0)
        (effects (font (size 1.27 1.27)))
      )
      (property "ki_keywords" "connector" (at 0 0 0)
        (effects (font (size 1.27 1.27)) hide)
      )
      (property "ki_description" "Generic connector, single row, 01x03, script generated" (at 0 0 0)
        (effects (font (size 1.27 1.27)) hide)
      )
      (property "ki_fp_filters" "Connector*:*_1x??_*" (at 0 0 0)
        (effects (font (size 1.27 1.27)) hide)
      )
      (symbol "Conn_01x03_Pin_1_1"
        (polyline
          (pts
            (xy 1.27 -2.54)
            (xy 0.8636 -2.54)
          )
          (stroke (width 0.1524) (type default))
          (fill (type none))
        )
        (polyline
          (pts
            (xy 1.27 0)
            (xy 0.8636 0)
          )
          (stroke (width 0.1524) (type default))
          (fill (type none))
        )
        (polyline
          (pts
            (xy 1.27 2.54)
            (xy 0.8636 2.54)
          )
          (stroke (width 0.1524) (type default))
          (fill (type none))
        )
        (rectangle (start 0.8636 -2.413) (end 0 -2.667)
          (stroke (width 0.1524) (type default))
          (fill (type outline))
        )
        (rectangle (start 0.8636 0.127) (end 0 -0.127)
          (stroke (width 0.1524) (type default))
          (fill (type outline))
        )
        (rectangle (start 0.8636 2.667) (end 0 2.413)
          (stroke (width 0.1524) (type default))
          (fill (type outline))
        )
        (pin passive line (at 5.08 2.54 180) (length 3.81)
          (name "Pin_1" (effects (font (size 1.27 1.27))))
          (number "1" (effects (font (size 1.27 1.27))))
        )
        (pin passive line (at 5.08 0 180) (length 3.81)
          (name "Pin_2" (effects (font (size 1.27 1.27))))
          (number "2" (effects (font (size 1.27 1.27))))
        )
        (pin passive line (at 5.08 -2.54 180) (length 3.81)
          (name "Pin_3" (effects (font (size 1.27 1.27))))
          (number "3" (effects (font (size 1.27 1.27))))
        )
      )
    )
    (symbol "Connector:Conn_Coaxial" (pin_names (offset 1.016) hide) (in_bom yes) (on_board yes)
      (property "Reference" "J" (at 0.254 3.048 0)
        (effects (font (size 1.27 1.27)))
      )
      (property "Value" "Conn_Coaxial" (at 2.921 0 90)
        (effects (font (size 1.27 1.27)))
      )
      (property "Footprint" "" (at 0 0 0)
        (effects (font (size 1.27 1.27)) hide)
      )
      (property "Datasheet" " ~" (at 0 0 0)
        (effects (font (size 1.27 1.27)) hide)
      )
      (property "ki_keywords" "BNC SMA SMB SMC LEMO coaxial connector CINCH RCA" (at 0 0 0)
        (effects (font (size 1.27 1.27)) hide)
      )
      (property "ki_description" "coaxial connector (BNC, SMA, SMB, SMC, Cinch/RCA, LEMO, ...)" (at 0 0 0)
        (effects (font (size 1.27 1.27)) hide)
      )
      (property "ki_fp_filters" "*BNC* *SMA* *SMB* *SMC* *Cinch* *LEMO*" (at 0 0 0)
        (effects (font (size 1.27 1.27)) hide)
      )
      (symbol "Conn_Coaxial_0_1"
        (arc (start -1.778 -0.508) (mid 0.2311 -1.8066) (end 1.778 0)
          (stroke (width 0.254) (type default))
          (fill (type none))
        )
        (polyline
          (pts
            (xy -2.54 0)
            (xy -0.508 0)
          )
          (stroke (width 0) (type default))
          (fill (type none))
        )
        (polyline
          (pts
            (xy 0 -2.54)
            (xy 0 -1.778)
          )
          (stroke (width 0) (type default))
          (fill (type none))
        )
        (circle (center 0 0) (radius 0.508)
          (stroke (width 0.2032) (type default))
          (fill (type none))
        )
        (arc (start 1.778 0) (mid 0.2099 1.8101) (end -1.778 0.508)
          (stroke (width 0.254) (type default))
          (fill (type none))
        )
      )
      (symbol "Conn_Coaxial_1_1"
        (pin passive line (at -5.08 0 0) (length 2.54)
          (name "In" (effects (font (size 1.27 1.27))))
          (number "1" (effects (font (size 1.27 1.27))))
        )
        (pin passive line (at 0 -5.08 90) (length 2.54)
          (name "Ext" (effects (font (size 1.27 1.27))))
          (number "2" (effects (font (size 1.27 1.27))))
        )
      )
    )
    (symbol "Connector:TestPoint" (pin_numbers hide) (pin_names (offset 0.762) hide) (in_bom yes) (on_board yes)
      (property "Reference" "TP" (at 0 6.858 0)
        (effects (font (size 1.27 1.27)))
      )
      (property "Value" "TestPoint" (at 0 5.08 0)
        (effects (font (size 1.27 1.27)))
      )
      (property "Footprint" "" (at 5.08 0 0)
        (effects (font (size 1.27 1.27)) hide)
      )
      (property "Datasheet" "~" (at 5.08 0 0)
        (effects (font (size 1.27 1.27)) hide)
      )
      (property "ki_keywords" "test point tp" (at 0 0 0)
        (effects (font (size 1.27 1.27)) hide)
      )
      (property "ki_description" "test point" (at 0 0 0)
        (effects (font (size 1.27 1.27)) hide)
      )
      (property "ki_fp_filters" "Pin* Test*" (at 0 0 0)
        (effects (font (size 1.27 1.27)) hide)
      )
      (symbol "TestPoint_0_1"
        (circle (center 0 3.302) (radius 0.762)
          (stroke (width 0) (type default))
          (fill (type none))
        )
      )
      (symbol "TestPoint_1_1"
        (pin passive line (at 0 0 90) (length 2.54)
          (name "1" (effects (font (size 1.27 1.27))))
          (number "1" (effects (font (size 1.27 1.27))))
        )
      )
    )
    (symbol "Device:C" (pin_numbers hide) (pin_names (offset 0.254)) (in_bom yes) (on_board yes)
      (property "Reference" "C" (at 0.635 2.54 0)
        (effects (font (size 1.27 1.27)) (justify left))
      )
      (property "Value" "C" (at 0.635 -2.54 0)
        (effects (font (size 1.27 1.27)) (justify left))
      )
      (property "Footprint" "" (at 0.9652 -3.81 0)
        (effects (font (size 1.27 1.27)) hide)
      )
      (property "Datasheet" "~" (at 0 0 0)
        (effects (font (size 1.27 1.27)) hide)
      )
      (property "ki_keywords" "cap capacitor" (at 0 0 0)
        (effects (font (size 1.27 1.27)) hide)
      )
      (property "ki_description" "Unpolarized capacitor" (at 0 0 0)
        (effects (font (size 1.27 1.27)) hide)
      )
      (property "ki_fp_filters" "C_*" (at 0 0 0)
        (effects (font (size 1.27 1.27)) hide)
      )
      (symbol "C_0_1"
        (polyline
          (pts
            (xy -2.032 -0.762)
            (xy 2.032 -0.762)
          )
          (stroke (width 0.508) (type default))
          (fill (type none))
        )
        (polyline
          (pts
            (xy -2.032 0.762)
            (xy 2.032 0.762)
          )
          (stroke (width 0.508) (type default))
          (fill (type none))
        )
      )
      (symbol "C_1_1"
        (pin passive line (at 0 3.81 270) (length 2.794)
          (name "~" (effects (font (size 1.27 1.27))))
          (number "1" (effects (font (size 1.27 1.27))))
        )
        (pin passive line (at 0 -3.81 90) (length 2.794)
          (name "~" (effects (font (size 1.27 1.27))))
          (number "2" (effects (font (size 1.27 1.27))))
        )
      )
    )
    (symbol "Device:R" (pin_numbers hide) (pin_names (offset 0)) (in_bom yes) (on_board yes)
      (property "Reference" "R" (at 2.032 0 90)
        (effects (font (size 1.27 1.27)))
      )
      (property "Value" "R" (at 0 0 90)
        (effects (font (size 1.27 1.27)))
      )
      (property "Footprint" "" (at -1.778 0 90)
        (effects (font (size 1.27 1.27)) hide)
      )
      (property "Datasheet" "~" (at 0 0 0)
        (effects (font (size 1.27 1.27)) hide)
      )
      (property "ki_keywords" "R res resistor" (at 0 0 0)
        (effects (font (size 1.27 1.27)) hide)
      )
      (property "ki_description" "Resistor" (at 0 0 0)
        (effects (font (size 1.27 1.27)) hide)
      )
      (property "ki_fp_filters" "R_*" (at 0 0 0)
        (effects (font (size 1.27 1.27)) hide)
      )
      (symbol "R_0_1"
        (rectangle (start -1.016 -2.54) (end 1.016 2.54)
          (stroke (width 0.254) (type default))
          (fill (type none))
        )
      )
      (symbol "R_1_1"
        (pin passive line (at 0 3.81 270) (length 1.27)
          (name "~" (effects (font (size 1.27 1.27))))
          (number "1" (effects (font (size 1.27 1.27))))
        )
        (pin passive line (at 0 -3.81 90) (length 1.27)
          (name "~" (effects (font (size 1.27 1.27))))
          (number "2" (effects (font (size 1.27 1.27))))
        )
      )
    )
    (symbol "Mechanical:MountingHole_Pad" (pin_numbers hide) (pin_names (offset 1.016) hide) (in_bom yes) (on_board yes)
      (property "Reference" "H" (at 0 6.35 0)
        (effects (font (size 1.27 1.27)))
      )
      (property "Value" "MountingHole_Pad" (at 0 4.445 0)
        (effects (font (size 1.27 1.27)))
      )
      (property "Footprint" "" (at 0 0 0)
        (effects (font (size 1.27 1.27)) hide)
      )
      (property "Datasheet" "~" (at 0 0 0)
        (effects (font (size 1.27 1.27)) hide)
      )
      (property "ki_keywords" "mounting hole" (at 0 0 0)
        (effects (font (size 1.27 1.27)) hide)
      )
      (property "ki_description" "Mounting Hole with connection" (at 0 0 0)
        (effects (font (size 1.27 1.27)) hide)
      )
      (property "ki_fp_filters" "MountingHole*Pad*" (at 0 0 0)
        (effects (font (size 1.27 1.27)) hide)
      )
      (symbol "MountingHole_Pad_0_1"
        (circle (center 0 1.27) (radius 1.27)
          (stroke (width 1.27) (type default))
          (fill (type none))
        )
      )
      (symbol "MountingHole_Pad_1_1"
        (pin input line (at 0 -2.54 90) (length 2.54)
          (name "1" (effects (font (size 1.27 1.27))))
          (number "1" (effects (font (size 1.27 1.27))))
        )
      )
    )
    (symbol "Regulator_Linear:L7805" (pin_names (offset 0.254)) (in_bom yes) (on_board yes)
      (property "Reference" "U" (at -3.81 3.175 0)
        (effects (font (size 1.27 1.27)))
      )
      (property "Value" "L7805" (at 0 3.175 0)
        (effects (font (size 1.27 1.27)) (justify left))
      )
      (property "Footprint" "" (at 0.635 -3.81 0)
        (effects (font (size 1.27 1.27) italic) (justify left) hide)
      )
      (property "Datasheet" "http://www.st.com/content/ccc/resource/technical/document/datasheet/41/4f/b3/b0/12/d4/47/88/CD00000444.pdf/files/CD00000444.pdf/jcr:content/translations/en.CD00000444.pdf" (at 0 -1.27 0)
        (effects (font (size 1.27 1.27)) hide)
      )
      (property "ki_keywords" "Voltage Regulator 1.5A Positive" (at 0 0 0)
        (effects (font (size 1.27 1.27)) hide)
      )
      (property "ki_description" "Positive 1.5A 35V Linear Regulator, Fixed Output 5V, TO-220/TO-263/TO-252" (at 0 0 0)
        (effects (font (size 1.27 1.27)) hide)
      )
      (property "ki_fp_filters" "TO?252* TO?263* TO?220*" (at 0 0 0)
        (effects (font (size 1.27 1.27)) hide)
      )
      (symbol "L7805_0_1"
        (rectangle (start -5.08 1.905) (end 5.08 -5.08)
          (stroke (width 0.254) (type default))
          (fill (type background))
        )
      )
      (symbol "L7805_1_1"
        (pin power_in line (at -7.62 0 0) (length 2.54)
          (name "IN" (effects (font (size 1.27 1.27))))
          (number "1" (effects (font (size 1.27 1.27))))
        )
        (pin power_in line (at 0 -7.62 90) (length 2.54)
          (name "GND" (effects (font (size 1.27 1.27))))
          (number "2" (effects (font (size 1.27 1.27))))
        )
        (pin power_out line (at 7.62 0 180) (length 2.54)
          (name "OUT" (effects (font (size 1.27 1.27))))
          (number "3" (effects (font (size 1.27 1.27))))
        )
      )
    )
    (symbol "Regulator_Linear:L7905" (pin_names (offset 0.254)) (in_bom yes) (on_board yes)
      (property "Reference" "U" (at -3.81 -3.175 0)
        (effects (font (size 1.27 1.27)))
      )
      (property "Value" "L7905" (at 0 -3.175 0)
        (effects (font (size 1.27 1.27)) (justify left))
      )
      (property "Footprint" "" (at 0 -5.08 0)
        (effects (font (size 1.27 1.27) italic) hide)
      )
      (property "Datasheet" "http://www.st.com/content/ccc/resource/technical/document/datasheet/c9/16/86/41/c7/2b/45/f2/CD00000450.pdf/files/CD00000450.pdf/jcr:content/translations/en.CD00000450.pdf" (at 0 0 0)
        (effects (font (size 1.27 1.27)) hide)
      )
      (property "ki_keywords" "Voltage Regulator 1.5A Negative" (at 0 0 0)
        (effects (font (size 1.27 1.27)) hide)
      )
      (property "ki_description" "Negative 1.5A 35V Linear Regulator, Fixed Output -5V, TO-220/TO-263" (at 0 0 0)
        (effects (font (size 1.27 1.27)) hide)
      )
      (property "ki_fp_filters" "TO?220* TO?263*" (at 0 0 0)
        (effects (font (size 1.27 1.27)) hide)
      )
      (symbol "L7905_0_1"
        (rectangle (start -5.08 5.08) (end 5.08 -1.905)
          (stroke (width 0.254) (type default))
          (fill (type background))
        )
      )
      (symbol "L7905_1_1"
        (pin power_in line (at 0 7.62 270) (length 2.54)
          (name "GND" (effects (font (size 1.27 1.27))))
          (number "1" (effects (font (size 1.27 1.27))))
        )
        (pin power_in line (at -7.62 0 0) (length 2.54)
          (name "VI" (effects (font (size 1.27 1.27))))
          (number "2" (effects (font (size 1.27 1.27))))
        )
        (pin power_out line (at 7.62 0 180) (length 2.54)
          (name "VO" (effects (font (size 1.27 1.27))))
          (number "3" (effects (font (size 1.27 1.27))))
        )
      )
    )
    (symbol "custom_parts:SGM8302" (in_bom yes) (on_board yes)
      (property "Reference" "U" (at -1.27 12.7 0)
        (effects (font (size 1.27 1.27)))
      )
      (property "Value" "SGM8302" (at 0 -12.7 0)
        (effects (font (size 1.27 1.27)))
      )
      (property "Footprint" "Package_SO:SOIC-8_3.9x4.9mm_P1.27mm" (at 1.27 -15.24 0)
        (effects (font (size 1.27 1.27)) hide)
      )
      (property "Datasheet" "" (at 3.81 -2.54 0)
        (effects (font (size 1.27 1.27)) hide)
      )
      (property "ki_description" "100MHz, High Voltage, Rail-to-Rail Output Amplifiers" (at 0 0 0)
        (effects (font (size 1.27 1.27)) hide)
      )
      (symbol "SGM8302_1_1"
        (rectangle (start -8.89 10.16) (end 8.89 -10.16)
          (stroke (width 0) (type default) (color 132 0 0 1))
          (fill (type background))
        )
        (pin output line (at -11.43 7.62 0) (length 2.54)
          (name "OUTA" (effects (font (size 1.27 1.27))))
          (number "1" (effects (font (size 1.27 1.27))))
        )
        (pin input line (at -11.43 2.54 0) (length 2.54)
          (name "INA-" (effects (font (size 1.27 1.27))))
          (number "2" (effects (font (size 1.27 1.27))))
        )
        (pin input line (at -11.43 -2.54 0) (length 2.54)
          (name "INA+" (effects (font (size 1.27 1.27))))
          (number "3" (effects (font (size 1.27 1.27))))
        )
        (pin power_in line (at -11.43 -7.62 0) (length 2.54)
          (name "-Vs" (effects (font (size 1.27 1.27))))
          (number "4" (effects (font (size 1.27 1.27))))
        )
        (pin input line (at 11.43 -7.62 180) (length 2.54)
          (name "INB+" (effects (font (size 1.27 1.27))))
          (number "5" (effects (font (size 1.27 1.27))))
        )
        (pin input line (at 11.43 -2.54 180) (length 2.54)
          (name "INB-" (effects (font (size 1.27 1.27))))
          (number "6" (effects (font (size 1.27 1.27))))
        )
        (pin output line (at 11.43 2.54 180) (length 2.54)
          (name "OUTB" (effects (font (size 1.27 1.27))))
          (number "7" (effects (font (size 1.27 1.27))))
        )
        (pin power_in line (at 11.43 7.62 180) (length 2.54)
          (name "+Vs" (effects (font (size 1.27 1.27))))
          (number "8" (effects (font (size 1.27 1.27))))
        )
      )
    )
    (symbol "power:GND" (power) (pin_names (offset 0)) (in_bom yes) (on_board yes)
      (property "Reference" "#PWR" (at 0 -6.35 0)
        (effects (font (size 1.27 1.27)) hide)
      )
      (property "Value" "GND" (at 0 -3.81 0)
        (effects (font (size 1.27 1.27)))
      )
      (property "Footprint" "" (at 0 0 0)
        (effects (font (size 1.27 1.27)) hide)
      )
      (property "Datasheet" "" (at 0 0 0)
        (effects (font (size 1.27 1.27)) hide)
      )
      (property "ki_keywords" "global power" (at 0 0 0)
        (effects (font (size 1.27 1.27)) hide)
      )
      (property "ki_description" "Power symbol creates a global label with name \"GND\" , ground" (at 0 0 0)
        (effects (font (size 1.27 1.27)) hide)
      )
      (symbol "GND_0_1"
        (polyline
          (pts
            (xy 0 0)
            (xy 0 -1.27)
            (xy 1.27 -1.27)
            (xy 0 -2.54)
            (xy -1.27 -1.27)
            (xy 0 -1.27)
          )
          (stroke (width 0) (type default))
          (fill (type none))
        )
      )
      (symbol "GND_1_1"
        (pin power_in line (at 0 0 270) (length 0) hide
          (name "GND" (effects (font (size 1.27 1.27))))
          (number "1" (effects (font (size 1.27 1.27))))
        )
      )
    )
    (symbol "power:PWR_FLAG" (power) (pin_numbers hide) (pin_names (offset 0) hide) (in_bom yes) (on_board yes)
      (property "Reference" "#FLG" (at 0 1.905 0)
        (effects (font (size 1.27 1.27)) hide)
      )
      (property "Value" "PWR_FLAG" (at 0 3.81 0)
        (effects (font (size 1.27 1.27)))
      )
      (property "Footprint" "" (at 0 0 0)
        (effects (font (size 1.27 1.27)) hide)
      )
      (property "Datasheet" "~" (at 0 0 0)
        (effects (font (size 1.27 1.27)) hide)
      )
      (property "ki_keywords" "flag power" (at 0 0 0)
        (effects (font (size 1.27 1.27)) hide)
      )
      (property "ki_description" "Special symbol for telling ERC where power comes from" (at 0 0 0)
        (effects (font (size 1.27 1.27)) hide)
      )
      (symbol "PWR_FLAG_0_0"
        (pin power_out line (at 0 0 90) (length 0)
          (name "pwr" (effects (font (size 1.27 1.27))))
          (number "1" (effects (font (size 1.27 1.27))))
        )
      )
      (symbol "PWR_FLAG_0_1"
        (polyline
          (pts
            (xy 0 0)
            (xy 0 1.27)
            (xy -1.016 1.905)
            (xy 0 2.54)
            (xy 1.016 1.905)
            (xy 0 1.27)
          )
          (stroke (width 0) (type default))
          (fill (type none))
        )
      )
    )
  )

  (junction (at 64.77 64.77) (diameter 0) (color 0 0 0 0)
    (uuid 026a2edc-ca09-42b5-b3dd-17ff19fce845)
  )
  (junction (at 97.79 40.64) (diameter 0) (color 0 0 0 0)
    (uuid 03bbaabf-6ea2-4b22-ab2c-5185e99234da)
  )
  (junction (at 161.29 116.84) (diameter 0) (color 0 0 0 0)
    (uuid 071f21f3-234c-4384-b4bf-33514a5dbdb0)
  )
  (junction (at 104.14 50.8) (diameter 0) (color 0 0 0 0)
    (uuid 0cc17e71-6c20-487a-a5a3-932c798b23e2)
  )
  (junction (at 87.63 121.92) (diameter 0) (color 0 0 0 0)
    (uuid 14dd20e8-1727-4cf2-9228-369549c5ad3d)
  )
  (junction (at 97.79 64.77) (diameter 0) (color 0 0 0 0)
    (uuid 1e2a78c9-0f4e-4c06-bdd0-0c6fba060564)
  )
  (junction (at 87.63 114.3) (diameter 0) (color 0 0 0 0)
    (uuid 1e66483f-2509-4108-96ac-8cdc6c5a6682)
  )
  (junction (at 87.63 139.7) (diameter 0) (color 0 0 0 0)
    (uuid 1f76965c-25f6-45c1-8e42-b530d8a17191)
  )
  (junction (at 143.51 50.8) (diameter 0) (color 0 0 0 0)
    (uuid 205d2604-fcf3-47e1-b393-44a6a1fdac34)
  )
  (junction (at 44.45 64.77) (diameter 0) (color 0 0 0 0)
    (uuid 2b47dc0c-4ccb-44ed-99a6-717885436f4a)
  )
  (junction (at 125.73 106.68) (diameter 0) (color 0 0 0 0)
    (uuid 3a6ca3b3-0913-4a8d-8909-b231123d563a)
  )
  (junction (at 121.92 50.8) (diameter 0) (color 0 0 0 0)
    (uuid 3a89a8c6-7928-4242-911e-50ed9889edd9)
  )
  (junction (at 44.45 40.64) (diameter 0) (color 0 0 0 0)
    (uuid 41c1ba79-e145-4213-9ef0-76a35a85fb6c)
  )
  (junction (at 86.36 50.8) (diameter 0) (color 0 0 0 0)
    (uuid 437b755b-6006-48b1-b1b7-79dcf5e9b455)
  )
  (junction (at 58.42 147.32) (diameter 0) (color 0 0 0 0)
    (uuid 51a430f6-789e-4e3b-b705-ada93e615f4b)
  )
  (junction (at 177.8 111.76) (diameter 0) (color 0 0 0 0)
    (uuid 5b8fd2fe-3a1b-4e50-a0f8-a0f153b9dd20)
  )
  (junction (at 125.73 121.92) (diameter 0) (color 0 0 0 0)
    (uuid 83151c3b-c3e1-47a0-b835-c92d1abe653f)
  )
  (junction (at 114.3 106.68) (diameter 0) (color 0 0 0 0)
    (uuid 9721f344-d975-4073-adda-0479ba46d7e1)
  )
  (junction (at 64.77 40.64) (diameter 0) (color 0 0 0 0)
    (uuid 9c5acabd-ab98-4edc-8b0b-a94688b8372b)
  )
  (junction (at 203.2 133.35) (diameter 0) (color 0 0 0 0)
    (uuid af5028bd-994d-41fb-863f-6e18784b936e)
  )
  (junction (at 203.2 107.95) (diameter 0) (color 0 0 0 0)
    (uuid b720285d-9b8d-442c-8c90-5b82d1ed8071)
  )
  (junction (at 54.61 50.8) (diameter 0) (color 0 0 0 0)
    (uuid bed4c808-2ca9-4a53-ab3f-4424aa6c6264)
  )
  (junction (at 102.87 121.92) (diameter 0) (color 0 0 0 0)
    (uuid cf10b7b8-73c5-49b6-bf43-3518360a4e81)
  )
  (junction (at 64.77 50.8) (diameter 0) (color 0 0 0 0)
    (uuid d1505a67-d480-463e-aefb-08b418cf254d)
  )
  (junction (at 58.42 121.92) (diameter 0) (color 0 0 0 0)
    (uuid de091b56-4309-4cfa-b165-c3a32d107d26)
  )
  (junction (at 143.51 38.1) (diameter 0) (color 0 0 0 0)
    (uuid e8191210-4813-42d6-b828-00de8d657db1)
  )
  (junction (at 153.67 106.68) (diameter 0) (color 0 0 0 0)
    (uuid ed697a87-5a1f-414b-80b8-7617414e6b33)
  )

  (wire (pts (xy 153.67 101.6) (xy 153.67 106.68))
    (stroke (width 0) (type default))
    (uuid 038fbcc0-9a66-40d3-952c-e36b40a08af0)
  )
  (wire (pts (xy 177.8 92.71) (xy 177.8 101.6))
    (stroke (width 0) (type default))
    (uuid 047ef4af-29a5-4b86-b04e-4f93bbfa5cce)
  )
  (wire (pts (xy 87.63 121.92) (xy 102.87 121.92))
    (stroke (width 0) (type default))
    (uuid 06bceca4-c9c1-4260-846e-f5733b371c43)
  )
  (wire (pts (xy 38.1 50.8) (xy 54.61 50.8))
    (stroke (width 0) (type default))
    (uuid 0bd46e16-4f7d-40a7-bffe-300b0382abd9)
  )
  (wire (pts (xy 38.1 53.34) (xy 44.45 53.34))
    (stroke (width 0) (type default))
    (uuid 0cb29406-d7c3-416e-8ffc-5bb95677361e)
  )
  (wire (pts (xy 161.29 133.35) (xy 203.2 133.35))
    (stroke (width 0) (type default))
    (uuid 0e9af032-8d6f-4f29-b602-b3d62e176f57)
  )
  (wire (pts (xy 54.61 50.8) (xy 64.77 50.8))
    (stroke (width 0) (type default))
    (uuid 10ee4ef5-7f79-416e-a1f6-72f28571b197)
  )
  (wire (pts (xy 64.77 60.96) (xy 64.77 64.77))
    (stroke (width 0) (type default))
    (uuid 15541b71-edea-438d-8a65-a7f87bd8206c)
  )
  (wire (pts (xy 203.2 107.95) (xy 208.28 107.95))
    (stroke (width 0) (type default))
    (uuid 20f9707a-5dd2-415d-afda-587c3d16dada)
  )
  (wire (pts (xy 152.4 121.92) (xy 152.4 139.7))
    (stroke (width 0) (type default))
    (uuid 23cad8f7-353f-467a-b576-2eedc493ba81)
  )
  (wire (pts (xy 163.83 106.68) (xy 167.64 106.68))
    (stroke (width 0) (type default))
    (uuid 2532c941-5f28-49d3-a30d-9470ce33a3a1)
  )
  (wire (pts (xy 177.8 111.76) (xy 184.15 111.76))
    (stroke (width 0) (type default))
    (uuid 26522ee7-9255-4868-90d9-95d9594a17c5)
  )
  (wire (pts (xy 114.3 111.76) (xy 114.3 106.68))
    (stroke (width 0) (type default))
    (uuid 278c8340-5ac3-404f-a6f7-948dfa34bcb1)
  )
  (wire (pts (xy 125.73 121.92) (xy 128.27 121.92))
    (stroke (width 0) (type default))
    (uuid 296fe8bb-2346-4571-bc66-a8722b1a804c)
  )
  (wire (pts (xy 104.14 50.8) (xy 121.92 50.8))
    (stroke (width 0) (type default))
    (uuid 2ba8e61d-2966-4c95-bdbb-04456f68a519)
  )
  (wire (pts (xy 44.45 64.77) (xy 64.77 64.77))
    (stroke (width 0) (type default))
    (uuid 2be8d1d1-63f6-4517-aa5d-ffd19bb552d1)
  )
  (wire (pts (xy 161.29 116.84) (xy 161.29 120.65))
    (stroke (width 0) (type default))
    (uuid 2f329e79-d712-40b5-855a-a8f582ce75f9)
  )
  (wire (pts (xy 64.77 40.64) (xy 64.77 41.91))
    (stroke (width 0) (type default))
    (uuid 2ff2bebc-47e4-44ac-8255-a75076f3878e)
  )
  (wire (pts (xy 104.14 49.53) (xy 104.14 50.8))
    (stroke (width 0) (type default))
    (uuid 3325cfa8-152e-4e1a-a374-3c14b606088d)
  )
  (wire (pts (xy 77.47 114.3) (xy 87.63 114.3))
    (stroke (width 0) (type default))
    (uuid 33976510-9e8c-47e3-b332-b837423ea604)
  )
  (wire (pts (xy 151.13 111.76) (xy 177.8 111.76))
    (stroke (width 0) (type default))
    (uuid 33fc1912-0c8b-4a90-a3a6-bae6ffec353a)
  )
  (wire (pts (xy 123.19 106.68) (xy 125.73 106.68))
    (stroke (width 0) (type default))
    (uuid 3514b76b-28f6-44fe-934c-a1d4cdf68a88)
  )
  (wire (pts (xy 64.77 49.53) (xy 64.77 50.8))
    (stroke (width 0) (type default))
    (uuid 36665676-bf0d-4752-aac3-f3db51419dae)
  )
  (wire (pts (xy 171.45 116.84) (xy 177.8 116.84))
    (stroke (width 0) (type default))
    (uuid 39c43238-71fc-446b-b9d1-6e44d7520e9e)
  )
  (wire (pts (xy 125.73 106.68) (xy 125.73 92.71))
    (stroke (width 0) (type default))
    (uuid 3c0156f4-eac6-4573-8076-ec765336e8e3)
  )
  (wire (pts (xy 161.29 116.84) (xy 163.83 116.84))
    (stroke (width 0) (type default))
    (uuid 3f502b42-bd3d-4d29-a186-0e83d55ae27c)
  )
  (wire (pts (xy 128.27 111.76) (xy 114.3 111.76))
    (stroke (width 0) (type default))
    (uuid 401e1bfe-fa57-4d98-a710-b4956757e250)
  )
  (wire (pts (xy 114.3 106.68) (xy 115.57 106.68))
    (stroke (width 0) (type default))
    (uuid 42c630c0-d746-49eb-9ed0-68b5d05e2670)
  )
  (wire (pts (xy 125.73 125.73) (xy 125.73 121.92))
    (stroke (width 0) (type default))
    (uuid 43c936ff-3d08-49bc-8940-d14bd0ca4054)
  )
  (wire (pts (xy 58.42 121.92) (xy 87.63 121.92))
    (stroke (width 0) (type default))
    (uuid 44f2b938-fac6-4541-833d-9c736367591d)
  )
  (wire (pts (xy 63.5 139.7) (xy 69.85 139.7))
    (stroke (width 0) (type default))
    (uuid 49bf0fb0-e8fa-45b1-89c8-0b691c1a2fc5)
  )
  (wire (pts (xy 58.42 147.32) (xy 58.42 152.4))
    (stroke (width 0) (type default))
    (uuid 4dd631bd-84f4-41d4-a151-dba152e29124)
  )
  (wire (pts (xy 78.74 40.64) (xy 64.77 40.64))
    (stroke (width 0) (type default))
    (uuid 4e1eed08-fcb5-4acf-8847-bb5328180a88)
  )
  (wire (pts (xy 44.45 40.64) (xy 64.77 40.64))
    (stroke (width 0) (type default))
    (uuid 5ebdadc9-6197-4d6b-9d85-ebaa16ebb6b3)
  )
  (wire (pts (xy 58.42 147.32) (xy 87.63 147.32))
    (stroke (width 0) (type default))
    (uuid 676e8b8c-64e8-4b72-b14f-6fc3d2bfa99e)
  )
  (wire (pts (xy 114.3 121.92) (xy 125.73 121.92))
    (stroke (width 0) (type default))
    (uuid 6a2f4186-0452-4ec2-b867-ac2e52d3e47a)
  )
  (wire (pts (xy 64.77 50.8) (xy 64.77 53.34))
    (stroke (width 0) (type default))
    (uuid 6a95e3ec-743c-46c6-86c5-5f231e186f63)
  )
  (wire (pts (xy 53.34 121.92) (xy 58.42 121.92))
    (stroke (width 0) (type default))
    (uuid 6eaf45bb-1944-4b5f-921f-e8374011d043)
  )
  (wire (pts (xy 203.2 133.35) (xy 208.28 133.35))
    (stroke (width 0) (type default))
    (uuid 7132c4dc-9d44-47fc-9121-1cd905e85506)
  )
  (wire (pts (xy 102.87 121.92) (xy 106.68 121.92))
    (stroke (width 0) (type default))
    (uuid 77e30027-6363-4d01-a1ee-5ff56d40c23b)
  )
  (wire (pts (xy 114.3 116.84) (xy 128.27 116.84))
    (stroke (width 0) (type default))
    (uuid 782a5582-daa2-4bd4-8ba1-b572e1d3136b)
  )
  (wire (pts (xy 58.42 119.38) (xy 58.42 121.92))
    (stroke (width 0) (type default))
    (uuid 7907798b-eb3c-408b-9251-77e5503a22e0)
  )
  (wire (pts (xy 203.2 106.68) (xy 203.2 107.95))
    (stroke (width 0) (type default))
    (uuid 79169715-c505-4277-a030-6c87025625ec)
  )
  (wire (pts (xy 63.5 114.3) (xy 69.85 114.3))
    (stroke (width 0) (type default))
    (uuid 7a9f22fd-26be-47c2-83c1-eb7f99593124)
  )
  (wire (pts (xy 203.2 107.95) (xy 203.2 109.22))
    (stroke (width 0) (type default))
    (uuid 7aaf155d-6a24-47e9-9505-a02c3ebefa4d)
  )
  (wire (pts (xy 195.58 111.76) (xy 195.58 127))
    (stroke (width 0) (type default))
    (uuid 7bea29e3-25ec-4ae8-af7c-c2d514c9680a)
  )
  (wire (pts (xy 58.42 121.92) (xy 58.42 127))
    (stroke (width 0) (type default))
    (uuid 7d54f608-992f-41e6-b4b3-f90fe548d4ef)
  )
  (wire (pts (xy 177.8 101.6) (xy 184.15 101.6))
    (stroke (width 0) (type default))
    (uuid 8084fe10-b198-4bc1-b9d9-26afe9eead2c)
  )
  (wire (pts (xy 104.14 41.91) (xy 104.14 40.64))
    (stroke (width 0) (type default))
    (uuid 84bc0c45-24fa-4820-baf8-6b09626fb2cb)
  )
  (wire (pts (xy 38.1 48.26) (xy 44.45 48.26))
    (stroke (width 0) (type default))
    (uuid 883123ec-712c-4e2b-adc1-63e81a9d3876)
  )
  (wire (pts (xy 143.51 50.8) (xy 147.32 50.8))
    (stroke (width 0) (type default))
    (uuid 886f2c39-11ad-453d-b17f-ff5d0c9853b6)
  )
  (wire (pts (xy 121.92 50.8) (xy 143.51 50.8))
    (stroke (width 0) (type default))
    (uuid 89eee3f6-edc6-45e3-ae1b-6fb988afe5ae)
  )
  (wire (pts (xy 44.45 48.26) (xy 44.45 40.64))
    (stroke (width 0) (type default))
    (uuid 8a7397de-c75a-4f14-b31a-41608a56bead)
  )
  (wire (pts (xy 151.13 106.68) (xy 153.67 106.68))
    (stroke (width 0) (type default))
    (uuid 8cecec68-50f6-4c4a-924a-0562dd308be6)
  )
  (wire (pts (xy 161.29 128.27) (xy 161.29 133.35))
    (stroke (width 0) (type default))
    (uuid 95ae51e1-7655-45a1-bfe4-393faf91df0f)
  )
  (wire (pts (xy 104.14 50.8) (xy 104.14 52.07))
    (stroke (width 0) (type default))
    (uuid 9612642d-7316-40b0-88fd-724500275fa8)
  )
  (wire (pts (xy 54.61 53.34) (xy 54.61 50.8))
    (stroke (width 0) (type default))
    (uuid 9d8ebe14-51ba-423b-8cde-0c03ec43de2b)
  )
  (wire (pts (xy 203.2 133.35) (xy 203.2 134.62))
    (stroke (width 0) (type default))
    (uuid 9de2fcfd-855d-4138-8dc3-17270fde9fbe)
  )
  (wire (pts (xy 128.27 106.68) (xy 125.73 106.68))
    (stroke (width 0) (type default))
    (uuid a28758eb-8f9e-4bc8-b3ab-a5675f2f8552)
  )
  (wire (pts (xy 77.47 139.7) (xy 87.63 139.7))
    (stroke (width 0) (type default))
    (uuid a9be41d3-b1bc-48cd-afd0-464a530f8127)
  )
  (wire (pts (xy 104.14 59.69) (xy 104.14 64.77))
    (stroke (width 0) (type default))
    (uuid a9d1fedd-05aa-4142-8cc7-0f7c003de333)
  )
  (wire (pts (xy 93.98 40.64) (xy 97.79 40.64))
    (stroke (width 0) (type default))
    (uuid ab19b384-6808-465b-ac9a-2c777647c52e)
  )
  (wire (pts (xy 143.51 38.1) (xy 143.51 50.8))
    (stroke (width 0) (type default))
    (uuid ab7e4b0f-691f-4b19-b459-6c5079395021)
  )
  (wire (pts (xy 191.77 101.6) (xy 198.12 101.6))
    (stroke (width 0) (type default))
    (uuid abcc6d55-82f2-4526-93ca-662861bcb2b8)
  )
  (wire (pts (xy 191.77 111.76) (xy 195.58 111.76))
    (stroke (width 0) (type default))
    (uuid ae587a4f-b942-49be-a496-02c2714595cc)
  )
  (wire (pts (xy 87.63 139.7) (xy 152.4 139.7))
    (stroke (width 0) (type default))
    (uuid b1d2bd64-d4e1-4aa8-b811-762a8a858eb8)
  )
  (wire (pts (xy 93.98 64.77) (xy 97.79 64.77))
    (stroke (width 0) (type default))
    (uuid b29a95af-87e5-48cd-821f-744985bde8ac)
  )
  (wire (pts (xy 203.2 132.08) (xy 203.2 133.35))
    (stroke (width 0) (type default))
    (uuid b48df79f-a5ba-42ce-8348-ae2d20074d10)
  )
  (wire (pts (xy 177.8 111.76) (xy 177.8 116.84))
    (stroke (width 0) (type default))
    (uuid b4c81416-91a5-463a-a722-05007ad8e2e3)
  )
  (wire (pts (xy 121.92 38.1) (xy 143.51 38.1))
    (stroke (width 0) (type default))
    (uuid b4def6e5-62d3-4ed7-ab90-4936bf27ce6c)
  )
  (wire (pts (xy 104.14 106.68) (xy 102.87 106.68))
    (stroke (width 0) (type default))
    (uuid b7f1f926-33f8-4718-ab18-2da21bfc8973)
  )
  (wire (pts (xy 97.79 40.64) (xy 104.14 40.64))
    (stroke (width 0) (type default))
    (uuid b81774ea-f4b4-4b23-9dda-c7a92d9982c9)
  )
  (wire (pts (xy 114.3 114.3) (xy 87.63 114.3))
    (stroke (width 0) (type default))
    (uuid b82ee8f6-f4dd-4f19-8a3e-2bab20496870)
  )
  (wire (pts (xy 44.45 53.34) (xy 44.45 64.77))
    (stroke (width 0) (type default))
    (uuid bcef8103-02d3-4e8a-97cc-6105e403d2bb)
  )
  (wire (pts (xy 114.3 114.3) (xy 114.3 116.84))
    (stroke (width 0) (type default))
    (uuid c2c25fa9-0889-44d5-9439-5b96cffa80b3)
  )
  (wire (pts (xy 111.76 106.68) (xy 114.3 106.68))
    (stroke (width 0) (type default))
    (uuid cb3ebfe1-c161-47cf-8af3-d8b554f00d0d)
  )
  (wire (pts (xy 64.77 64.77) (xy 78.74 64.77))
    (stroke (width 0) (type default))
    (uuid ce49b550-4e41-4346-9ea5-6908fcd58fd0)
  )
  (wire (pts (xy 64.77 50.8) (xy 86.36 50.8))
    (stroke (width 0) (type default))
    (uuid d65067cb-d809-4bba-9ad4-921795935738)
  )
  (wire (pts (xy 53.34 147.32) (xy 58.42 147.32))
    (stroke (width 0) (type default))
    (uuid d6534e61-961b-4918-a52a-605212934391)
  )
  (wire (pts (xy 151.13 116.84) (xy 161.29 116.84))
    (stroke (width 0) (type default))
    (uuid d957bff4-172d-4ce1-8c08-e4a99fee177b)
  )
  (wire (pts (xy 86.36 48.26) (xy 86.36 50.8))
    (stroke (width 0) (type default))
    (uuid da086eaf-3750-4890-97eb-7146a9abc8e8)
  )
  (wire (pts (xy 58.42 144.78) (xy 58.42 147.32))
    (stroke (width 0) (type default))
    (uuid de32d4c3-3680-4574-aa34-773c4fed8531)
  )
  (wire (pts (xy 125.73 92.71) (xy 177.8 92.71))
    (stroke (width 0) (type default))
    (uuid de7ee077-f3ea-43b6-bd9f-a781901d300d)
  )
  (wire (pts (xy 151.13 121.92) (xy 152.4 121.92))
    (stroke (width 0) (type default))
    (uuid df826a50-a165-4605-a21d-4ccdd87d7e1f)
  )
  (wire (pts (xy 97.79 64.77) (xy 104.14 64.77))
    (stroke (width 0) (type default))
    (uuid e057ffe7-4ad0-4b03-94b9-c0df5146b934)
  )
  (wire (pts (xy 86.36 50.8) (xy 86.36 57.15))
    (stroke (width 0) (type default))
    (uuid e5ca350b-579f-4830-8c3b-b5e53f19fbbc)
  )
  (wire (pts (xy 153.67 106.68) (xy 156.21 106.68))
    (stroke (width 0) (type default))
    (uuid ec855ead-cd3c-469b-a181-b0f02a93210d)
  )
  (wire (pts (xy 195.58 127) (xy 198.12 127))
    (stroke (width 0) (type default))
    (uuid f33718ba-048c-476a-891c-1143e9b3a7ab)
  )
  (wire (pts (xy 102.87 106.68) (xy 102.87 121.92))
    (stroke (width 0) (type default))
    (uuid f3858262-5bf8-4710-b663-19057a185705)
  )
  (wire (pts (xy 86.36 50.8) (xy 104.14 50.8))
    (stroke (width 0) (type default))
    (uuid f675ef4d-f71d-43a7-8fd6-139fbd15eb53)
  )
  (wire (pts (xy 143.51 38.1) (xy 147.32 38.1))
    (stroke (width 0) (type default))
    (uuid ffdd3ddb-cfe0-43c9-bdb1-bf796eb62866)
  )

  (label "vcc+5" (at 153.67 101.6 180) (fields_autoplaced)
    (effects (font (size 1.27 1.27)) (justify right bottom))
    (uuid 6e73051d-a16e-428c-a466-f96707c19970)
  )
  (label "vcc-5" (at 104.14 64.77 0) (fields_autoplaced)
    (effects (font (size 1.27 1.27)) (justify left bottom))
    (uuid a206f83d-ad95-4b68-80ef-c09232996425)
  )
  (label "vcc-5" (at 125.73 125.73 180) (fields_autoplaced)
    (effects (font (size 1.27 1.27)) (justify right bottom))
    (uuid cbbc8df0-56ff-4c07-9c79-af2ad104405b)
  )
  (label "vcc+5" (at 104.14 40.64 0) (fields_autoplaced)
    (effects (font (size 1.27 1.27)) (justify left bottom))
    (uuid fa0202a4-6447-4e09-829e-f86825ac0d35)
  )

  (symbol (lib_id "Mechanical:MountingHole_Pad") (at 147.32 35.56 0) (unit 1)
    (in_bom yes) (on_board yes) (dnp no) (fields_autoplaced)
    (uuid 03f40aa2-5d08-47a3-9b1e-6afe2dbfbe39)
    (property "Reference" "H2" (at 149.86 33.02 0)
      (effects (font (size 1.27 1.27)) (justify left))
    )
    (property "Value" "MountingHole_Pad" (at 149.86 35.56 0)
      (effects (font (size 1.27 1.27)) (justify left))
    )
    (property "Footprint" "MountingHole:MountingHole_3.2mm_M3_ISO14580_Pad_TopBottom" (at 147.32 35.56 0)
      (effects (font (size 1.27 1.27)) hide)
    )
    (property "Datasheet" "~" (at 147.32 35.56 0)
      (effects (font (size 1.27 1.27)) hide)
    )
    (pin "1" (uuid 3568846c-f233-4d09-bac6-132961b3f7f9))
    (instances
      (project "vhs-rf-amp-sgm8302"
        (path "/852f29eb-415c-4d8a-93d8-ad60c4834e6e"
          (reference "H2") (unit 1)
        )
      )
    )
  )

  (symbol (lib_id "Connector:Conn_01x01_Pin") (at 213.36 133.35 180) (unit 1)
    (in_bom yes) (on_board yes) (dnp no)
    (uuid 0417f566-fb20-454c-8d9a-c1204a14e612)
    (property "Reference" "J9" (at 215.9 133.35 0)
      (effects (font (size 1.27 1.27)))
    )
    (property "Value" "Conn_01x01_Pin" (at 226.06 133.35 0)
      (effects (font (size 1.27 1.27)))
    )
    (property "Footprint" "Connector_PinHeader_2.54mm:PinHeader_1x01_P2.54mm_Vertical" (at 213.36 133.35 0)
      (effects (font (size 1.27 1.27)) hide)
    )
    (property "Datasheet" "~" (at 213.36 133.35 0)
      (effects (font (size 1.27 1.27)) hide)
    )
    (pin "1" (uuid 01dc5d1f-8764-4024-9225-036856378b1d))
    (instances
      (project "vhs-rf-amp-sgm8302"
        (path "/852f29eb-415c-4d8a-93d8-ad60c4834e6e"
          (reference "J9") (unit 1)
        )
      )
    )
  )

  (symbol (lib_id "Device:R") (at 119.38 106.68 270) (unit 1)
    (in_bom yes) (on_board yes) (dnp no) (fields_autoplaced)
    (uuid 06095c15-d747-4b97-9920-30e49eb522ea)
    (property "Reference" "R6" (at 119.38 100.33 90)
      (effects (font (size 1.27 1.27)))
    )
    (property "Value" "200" (at 119.38 102.87 90)
      (effects (font (size 1.27 1.27)))
    )
    (property "Footprint" "Resistor_SMD:R_0805_2012Metric_Pad1.20x1.40mm_HandSolder" (at 119.38 104.902 90)
      (effects (font (size 1.27 1.27)) hide)
    )
    (property "Datasheet" "~" (at 119.38 106.68 0)
      (effects (font (size 1.27 1.27)) hide)
    )
    (pin "1" (uuid 37e51fd9-96f9-4427-a90e-a33c5ec01bab))
    (pin "2" (uuid c20bfd2c-05ee-477a-bbea-774a66a4407f))
    (instances
      (project "vhs-rf-amp-sgm8302"
        (path "/852f29eb-415c-4d8a-93d8-ad60c4834e6e"
          (reference "R6") (unit 1)
        )
      )
    )
  )

  (symbol (lib_id "power:GND") (at 54.61 53.34 0) (unit 1)
    (in_bom yes) (on_board yes) (dnp no) (fields_autoplaced)
    (uuid 0e51c8ac-f5ab-45fb-8c28-65dca638811a)
    (property "Reference" "#PWR01" (at 54.61 59.69 0)
      (effects (font (size 1.27 1.27)) hide)
    )
    (property "Value" "GND" (at 54.61 58.42 0)
      (effects (font (size 1.27 1.27)))
    )
    (property "Footprint" "" (at 54.61 53.34 0)
      (effects (font (size 1.27 1.27)) hide)
    )
    (property "Datasheet" "" (at 54.61 53.34 0)
      (effects (font (size 1.27 1.27)) hide)
    )
    (pin "1" (uuid 673e76f6-e148-4ffa-aeea-01e15e6802a0))
    (instances
      (project "vhs-rf-amp-sgm8302"
        (path "/852f29eb-415c-4d8a-93d8-ad60c4834e6e"
          (reference "#PWR01") (unit 1)
        )
      )
    )
  )

  (symbol (lib_id "Device:C") (at 110.49 121.92 270) (unit 1)
    (in_bom yes) (on_board yes) (dnp no)
    (uuid 0f27f99c-1134-4584-be59-6f428701d46d)
    (property "Reference" "C7" (at 110.49 129.54 90)
      (effects (font (size 1.27 1.27)))
    )
    (property "Value" "100n" (at 110.49 127 90)
      (effects (font (size 1.27 1.27)))
    )
    (property "Footprint" "Capacitor_SMD:C_0805_2012Metric_Pad1.18x1.45mm_HandSolder" (at 106.68 122.8852 0)
      (effects (font (size 1.27 1.27)) hide)
    )
    (property "Datasheet" "~" (at 110.49 121.92 0)
      (effects (font (size 1.27 1.27)) hide)
    )
    (pin "1" (uuid 2110718f-858b-4618-ada3-9c866d82d548))
    (pin "2" (uuid b64ce8f8-615e-47c1-b085-b0dfe5a8e29c))
    (instances
      (project "vhs-rf-amp-sgm8302"
        (path "/852f29eb-415c-4d8a-93d8-ad60c4834e6e"
          (reference "C7") (unit 1)
        )
      )
    )
  )

  (symbol (lib_id "Mechanical:MountingHole_Pad") (at 147.32 48.26 0) (unit 1)
    (in_bom yes) (on_board yes) (dnp no) (fields_autoplaced)
    (uuid 12b1aa70-06aa-4585-b338-48b7412aca05)
    (property "Reference" "H4" (at 149.86 45.72 0)
      (effects (font (size 1.27 1.27)) (justify left))
    )
    (property "Value" "MountingHole_Pad" (at 149.86 48.26 0)
      (effects (font (size 1.27 1.27)) (justify left))
    )
    (property "Footprint" "MountingHole:MountingHole_3.2mm_M3_ISO14580_Pad_TopBottom" (at 147.32 48.26 0)
      (effects (font (size 1.27 1.27)) hide)
    )
    (property "Datasheet" "~" (at 147.32 48.26 0)
      (effects (font (size 1.27 1.27)) hide)
    )
    (pin "1" (uuid 2961a41a-ebce-4bfa-bca7-e08ad5932975))
    (instances
      (project "vhs-rf-amp-sgm8302"
        (path "/852f29eb-415c-4d8a-93d8-ad60c4834e6e"
          (reference "H4") (unit 1)
        )
      )
    )
  )

  (symbol (lib_id "Connector:Conn_Coaxial") (at 58.42 114.3 0) (mirror y) (unit 1)
    (in_bom yes) (on_board yes) (dnp no)
    (uuid 138f64a1-1621-4827-ad35-796384ebddc4)
    (property "Reference" "J3" (at 54.61 114.3 0)
      (effects (font (size 1.27 1.27)) (justify left))
    )
    (property "Value" "Conn_Coaxial" (at 50.8 114.3 0)
      (effects (font (size 1.27 1.27)) (justify left))
    )
    (property "Footprint" "Connector_Coaxial:SMA_Samtec_SMA-J-P-X-ST-EM1_EdgeMount" (at 58.42 114.3 0)
      (effects (font (size 1.27 1.27)) hide)
    )
    (property "Datasheet" " ~" (at 58.42 114.3 0)
      (effects (font (size 1.27 1.27)) hide)
    )
    (pin "1" (uuid 03480755-c361-45af-ab7a-e4c3aaa73b5d))
    (pin "2" (uuid 0a39449f-480c-448e-8ec4-a22f40093fe1))
    (instances
      (project "vhs-rf-amp-sgm8302"
        (path "/852f29eb-415c-4d8a-93d8-ad60c4834e6e"
          (reference "J3") (unit 1)
        )
      )
    )
  )

  (symbol (lib_id "Regulator_Linear:L7905") (at 86.36 64.77 0) (unit 1)
    (in_bom yes) (on_board yes) (dnp no) (fields_autoplaced)
    (uuid 1a590f08-d319-4085-ad51-65a87b984c51)
    (property "Reference" "U2" (at 86.36 68.58 0)
      (effects (font (size 1.27 1.27)))
    )
    (property "Value" "L7905" (at 86.36 71.12 0)
      (effects (font (size 1.27 1.27)))
    )
    (property "Footprint" "Package_TO_SOT_THT:TO-220F-3_Vertical" (at 86.36 69.85 0)
      (effects (font (size 1.27 1.27) italic) hide)
    )
    (property "Datasheet" "http://www.st.com/content/ccc/resource/technical/document/datasheet/c9/16/86/41/c7/2b/45/f2/CD00000450.pdf/files/CD00000450.pdf/jcr:content/translations/en.CD00000450.pdf" (at 86.36 64.77 0)
      (effects (font (size 1.27 1.27)) hide)
    )
    (pin "1" (uuid 3a0c4efc-fc9a-44a4-bea1-c5dca82bc737))
    (pin "2" (uuid bf453869-9059-4384-a13f-fa44c1d4247c))
    (pin "3" (uuid d6423fb5-49f2-418f-833a-26d305fc0f0c))
    (instances
      (project "vhs-rf-amp-sgm8302"
        (path "/852f29eb-415c-4d8a-93d8-ad60c4834e6e"
          (reference "U2") (unit 1)
        )
      )
    )
  )

  (symbol (lib_id "power:GND") (at 203.2 134.62 0) (unit 1)
    (in_bom yes) (on_board yes) (dnp no) (fields_autoplaced)
    (uuid 1abf5c24-a905-4306-a37e-fef9fc9224fa)
    (property "Reference" "#PWR04" (at 203.2 140.97 0)
      (effects (font (size 1.27 1.27)) hide)
    )
    (property "Value" "GND" (at 203.2 139.7 0)
      (effects (font (size 1.27 1.27)))
    )
    (property "Footprint" "" (at 203.2 134.62 0)
      (effects (font (size 1.27 1.27)) hide)
    )
    (property "Datasheet" "" (at 203.2 134.62 0)
      (effects (font (size 1.27 1.27)) hide)
    )
    (pin "1" (uuid 2d560631-25ec-4ab5-96bf-7dae3f2788b8))
    (instances
      (project "vhs-rf-amp-sgm8302"
        (path "/852f29eb-415c-4d8a-93d8-ad60c4834e6e"
          (reference "#PWR04") (unit 1)
        )
      )
    )
  )

  (symbol (lib_id "custom_parts:SGM8302") (at 139.7 114.3 0) (unit 1)
    (in_bom yes) (on_board yes) (dnp no)
    (uuid 1bdf79b5-7f5c-4d6c-bec7-e65aa3b62f1c)
    (property "Reference" "U3" (at 139.7 101.6 0)
      (effects (font (size 1.27 1.27)))
    )
    (property "Value" "SGM8302" (at 139.7 127 0)
      (effects (font (size 1.27 1.27)))
    )
    (property "Footprint" "Package_SO:SOIC-8_3.9x4.9mm_P1.27mm" (at 143.51 116.84 0)
      (effects (font (size 1.27 1.27)) hide)
    )
    (property "Datasheet" "" (at 143.51 116.84 0)
      (effects (font (size 1.27 1.27)) hide)
    )
    (pin "1" (uuid 0631c310-dde1-4fbc-bd9f-4f1a25967984))
    (pin "2" (uuid 9ade4fbd-c5ee-465b-9c63-9270a65da264))
    (pin "3" (uuid 4b702965-42c9-4ca2-9f47-8d24a78271a1))
    (pin "4" (uuid 258b3e91-117a-4785-901c-04a491a1409d))
    (pin "5" (uuid 1ee052d4-5ddb-4158-8238-d56d3a5d146b))
    (pin "6" (uuid 3a0cd7df-41ea-4b0b-a5b2-fbd9bdfd1d40))
    (pin "7" (uuid b4720787-02c1-41e5-b949-09c14ce87747))
    (pin "8" (uuid 4fc2be50-855f-4fa7-bd31-71b592387297))
    (instances
      (project "vhs-rf-amp-sgm8302"
        (path "/852f29eb-415c-4d8a-93d8-ad60c4834e6e"
          (reference "U3") (unit 1)
        )
      )
    )
  )

  (symbol (lib_id "Device:C") (at 73.66 139.7 270) (unit 1)
    (in_bom yes) (on_board yes) (dnp no) (fields_autoplaced)
    (uuid 1bef0875-15ae-4ab4-86b4-77a88bd07f56)
    (property "Reference" "C1" (at 73.66 132.08 90)
      (effects (font (size 1.27 1.27)))
    )
    (property "Value" "1u" (at 73.66 134.62 90)
      (effects (font (size 1.27 1.27)))
    )
    (property "Footprint" "Capacitor_SMD:C_0805_2012Metric_Pad1.18x1.45mm_HandSolder" (at 69.85 140.6652 0)
      (effects (font (size 1.27 1.27)) hide)
    )
    (property "Datasheet" "~" (at 73.66 139.7 0)
      (effects (font (size 1.27 1.27)) hide)
    )
    (pin "1" (uuid 5fb0966b-44f5-491b-9988-4fbd6530b2fb))
    (pin "2" (uuid fff3e8a5-832a-497c-87fd-bc86d7e1c486))
    (instances
      (project "vhs-rf-amp-sgm8302"
        (path "/852f29eb-415c-4d8a-93d8-ad60c4834e6e"
          (reference "C1") (unit 1)
        )
      )
    )
  )

  (symbol (lib_id "Connector:TestPoint") (at 97.79 64.77 0) (mirror x) (unit 1)
    (in_bom yes) (on_board yes) (dnp no)
    (uuid 267109d2-e79e-44c8-b55f-07d8e2cc09b3)
    (property "Reference" "TP2" (at 100.33 69.342 0)
      (effects (font (size 1.27 1.27)) (justify left))
    )
    (property "Value" "TestPoint" (at 100.33 66.802 0)
      (effects (font (size 1.27 1.27)) (justify left))
    )
    (property "Footprint" "TestPoint:TestPoint_Pad_D2.0mm" (at 102.87 64.77 0)
      (effects (font (size 1.27 1.27)) hide)
    )
    (property "Datasheet" "~" (at 102.87 64.77 0)
      (effects (font (size 1.27 1.27)) hide)
    )
    (pin "1" (uuid dd153cd8-6cb2-4196-a538-40b86e71f893))
    (instances
      (project "vhs-rf-amp-sgm8302"
        (path "/852f29eb-415c-4d8a-93d8-ad60c4834e6e"
          (reference "TP2") (unit 1)
        )
      )
    )
  )

  (symbol (lib_id "Connector:Conn_Coaxial") (at 203.2 101.6 0) (unit 1)
    (in_bom yes) (on_board yes) (dnp no) (fields_autoplaced)
    (uuid 29da55a7-4a9d-4ce7-b8d4-e41f067fb57b)
    (property "Reference" "J5" (at 207.01 100.6232 0)
      (effects (font (size 1.27 1.27)) (justify left))
    )
    (property "Value" "Conn_Coaxial" (at 207.01 103.1632 0)
      (effects (font (size 1.27 1.27)) (justify left))
    )
    (property "Footprint" "Connector_Coaxial:SMA_Samtec_SMA-J-P-X-ST-EM1_EdgeMount" (at 203.2 101.6 0)
      (effects (font (size 1.27 1.27)) hide)
    )
    (property "Datasheet" " ~" (at 203.2 101.6 0)
      (effects (font (size 1.27 1.27)) hide)
    )
    (pin "1" (uuid 7d87655f-7f65-49b4-8d20-96c4bd2517e3))
    (pin "2" (uuid 7a0221b8-bfa1-4693-b1d4-be4a9811d315))
    (instances
      (project "vhs-rf-amp-sgm8302"
        (path "/852f29eb-415c-4d8a-93d8-ad60c4834e6e"
          (reference "J5") (unit 1)
        )
      )
    )
  )

  (symbol (lib_id "Device:R") (at 187.96 111.76 270) (unit 1)
    (in_bom yes) (on_board yes) (dnp no) (fields_autoplaced)
    (uuid 499e914a-40a4-4939-8348-f50095ba9e00)
    (property "Reference" "R2" (at 187.96 105.41 90)
      (effects (font (size 1.27 1.27)))
    )
    (property "Value" "75" (at 187.96 107.95 90)
      (effects (font (size 1.27 1.27)))
    )
    (property "Footprint" "Resistor_SMD:R_0805_2012Metric_Pad1.20x1.40mm_HandSolder" (at 187.96 109.982 90)
      (effects (font (size 1.27 1.27)) hide)
    )
    (property "Datasheet" "~" (at 187.96 111.76 0)
      (effects (font (size 1.27 1.27)) hide)
    )
    (pin "1" (uuid d504e56e-efce-41fc-a2dd-65bc2f351e85))
    (pin "2" (uuid 64dd5e49-a1a7-43b9-a9cb-b8c02a2d89b4))
    (instances
      (project "vhs-rf-amp-sgm8302"
        (path "/852f29eb-415c-4d8a-93d8-ad60c4834e6e"
          (reference "R2") (unit 1)
        )
      )
    )
  )

  (symbol (lib_id "Device:C") (at 64.77 57.15 0) (unit 1)
    (in_bom yes) (on_board yes) (dnp no) (fields_autoplaced)
    (uuid 5f99d213-3953-4d22-b53b-30c322a8b530)
    (property "Reference" "C4" (at 68.58 55.88 0)
      (effects (font (size 1.27 1.27)) (justify left))
    )
    (property "Value" "1u" (at 68.58 58.42 0)
      (effects (font (size 1.27 1.27)) (justify left))
    )
    (property "Footprint" "Capacitor_SMD:C_0805_2012Metric_Pad1.18x1.45mm_HandSolder" (at 65.7352 60.96 0)
      (effects (font (size 1.27 1.27)) hide)
    )
    (property "Datasheet" "~" (at 64.77 57.15 0)
      (effects (font (size 1.27 1.27)) hide)
    )
    (pin "1" (uuid 4d50aa8a-8763-4991-bdeb-28d1494fe82e))
    (pin "2" (uuid 24d63477-1025-4fbb-9c1f-e6b7a50e36a2))
    (instances
      (project "vhs-rf-amp-sgm8302"
        (path "/852f29eb-415c-4d8a-93d8-ad60c4834e6e"
          (reference "C4") (unit 1)
        )
      )
    )
  )

  (symbol (lib_id "power:GND") (at 167.64 106.68 0) (unit 1)
    (in_bom yes) (on_board yes) (dnp no)
    (uuid 5fb0241a-ec1c-45e3-b62d-15fcfc9b77e4)
    (property "Reference" "#PWR07" (at 167.64 113.03 0)
      (effects (font (size 1.27 1.27)) hide)
    )
    (property "Value" "GND" (at 167.64 105.41 0)
      (effects (font (size 1.27 1.27)))
    )
    (property "Footprint" "" (at 167.64 106.68 0)
      (effects (font (size 1.27 1.27)) hide)
    )
    (property "Datasheet" "" (at 167.64 106.68 0)
      (effects (font (size 1.27 1.27)) hide)
    )
    (pin "1" (uuid b7e24421-326d-4354-95bf-21824ccbd6fc))
    (instances
      (project "vhs-rf-amp-sgm8302"
        (path "/852f29eb-415c-4d8a-93d8-ad60c4834e6e"
          (reference "#PWR07") (unit 1)
        )
      )
    )
  )

  (symbol (lib_id "Device:R") (at 87.63 118.11 180) (unit 1)
    (in_bom yes) (on_board yes) (dnp no) (fields_autoplaced)
    (uuid 60f01168-21d1-4de0-ae5c-461aab9206b7)
    (property "Reference" "R3" (at 90.17 116.84 0)
      (effects (font (size 1.27 1.27)) (justify right))
    )
    (property "Value" "10k" (at 90.17 119.38 0)
      (effects (font (size 1.27 1.27)) (justify right))
    )
    (property "Footprint" "Resistor_SMD:R_0805_2012Metric_Pad1.20x1.40mm_HandSolder" (at 89.408 118.11 90)
      (effects (font (size 1.27 1.27)) hide)
    )
    (property "Datasheet" "~" (at 87.63 118.11 0)
      (effects (font (size 1.27 1.27)) hide)
    )
    (pin "1" (uuid c5aa5029-20a0-4df0-bd84-7a70f1f1990f))
    (pin "2" (uuid 4c85e047-092a-414d-b13e-f0e710d6ac8d))
    (instances
      (project "vhs-rf-amp-sgm8302"
        (path "/852f29eb-415c-4d8a-93d8-ad60c4834e6e"
          (reference "R3") (unit 1)
        )
      )
    )
  )

  (symbol (lib_id "Device:C") (at 104.14 55.88 0) (unit 1)
    (in_bom yes) (on_board yes) (dnp no) (fields_autoplaced)
    (uuid 6eb0ad23-578e-456e-8c9b-3e09fe79c635)
    (property "Reference" "C5" (at 107.95 54.61 0)
      (effects (font (size 1.27 1.27)) (justify left))
    )
    (property "Value" "1u" (at 107.95 57.15 0)
      (effects (font (size 1.27 1.27)) (justify left))
    )
    (property "Footprint" "Capacitor_SMD:C_0805_2012Metric_Pad1.18x1.45mm_HandSolder" (at 105.1052 59.69 0)
      (effects (font (size 1.27 1.27)) hide)
    )
    (property "Datasheet" "~" (at 104.14 55.88 0)
      (effects (font (size 1.27 1.27)) hide)
    )
    (pin "1" (uuid 2e8cde6f-2f27-406b-ad99-4d74ceb0c1e1))
    (pin "2" (uuid 6aa553d9-ff52-4eaf-bacd-ce64e69f888c))
    (instances
      (project "vhs-rf-amp-sgm8302"
        (path "/852f29eb-415c-4d8a-93d8-ad60c4834e6e"
          (reference "C5") (unit 1)
        )
      )
    )
  )

  (symbol (lib_id "Mechanical:MountingHole_Pad") (at 121.92 48.26 0) (unit 1)
    (in_bom yes) (on_board yes) (dnp no) (fields_autoplaced)
    (uuid 8935228d-7db5-405c-8815-61aabbf8223d)
    (property "Reference" "H3" (at 124.46 45.72 0)
      (effects (font (size 1.27 1.27)) (justify left))
    )
    (property "Value" "MountingHole_Pad" (at 124.46 48.26 0)
      (effects (font (size 1.27 1.27)) (justify left))
    )
    (property "Footprint" "MountingHole:MountingHole_3.2mm_M3_ISO14580_Pad_TopBottom" (at 121.92 48.26 0)
      (effects (font (size 1.27 1.27)) hide)
    )
    (property "Datasheet" "~" (at 121.92 48.26 0)
      (effects (font (size 1.27 1.27)) hide)
    )
    (pin "1" (uuid a5d48b3d-116a-4e4d-a4a8-acdb6b72f396))
    (instances
      (project "vhs-rf-amp-sgm8302"
        (path "/852f29eb-415c-4d8a-93d8-ad60c4834e6e"
          (reference "H3") (unit 1)
        )
      )
    )
  )

  (symbol (lib_id "power:GND") (at 58.42 127 0) (unit 1)
    (in_bom yes) (on_board yes) (dnp no) (fields_autoplaced)
    (uuid a5053acf-2782-464b-ae8f-7d91a754e0ca)
    (property "Reference" "#PWR03" (at 58.42 133.35 0)
      (effects (font (size 1.27 1.27)) hide)
    )
    (property "Value" "GND" (at 58.42 132.08 0)
      (effects (font (size 1.27 1.27)))
    )
    (property "Footprint" "" (at 58.42 127 0)
      (effects (font (size 1.27 1.27)) hide)
    )
    (property "Datasheet" "" (at 58.42 127 0)
      (effects (font (size 1.27 1.27)) hide)
    )
    (pin "1" (uuid 1410f03d-d762-4da9-9293-d14221f4a03f))
    (instances
      (project "vhs-rf-amp-sgm8302"
        (path "/852f29eb-415c-4d8a-93d8-ad60c4834e6e"
          (reference "#PWR03") (unit 1)
        )
      )
    )
  )

  (symbol (lib_id "Device:R") (at 167.64 116.84 90) (unit 1)
    (in_bom yes) (on_board yes) (dnp no)
    (uuid a6af33d5-0aab-44f5-a6b9-4ceb287d8789)
    (property "Reference" "R7" (at 167.64 119.38 90)
      (effects (font (size 1.27 1.27)))
    )
    (property "Value" "200" (at 167.64 121.92 90)
      (effects (font (size 1.27 1.27)))
    )
    (property "Footprint" "Resistor_SMD:R_0805_2012Metric_Pad1.20x1.40mm_HandSolder" (at 167.64 118.618 90)
      (effects (font (size 1.27 1.27)) hide)
    )
    (property "Datasheet" "~" (at 167.64 116.84 0)
      (effects (font (size 1.27 1.27)) hide)
    )
    (pin "1" (uuid 270dd6e0-f604-44d5-99e3-e9a63eabbea6))
    (pin "2" (uuid 54f4d4bd-7954-4383-892e-11be02c9fc1f))
    (instances
      (project "vhs-rf-amp-sgm8302"
        (path "/852f29eb-415c-4d8a-93d8-ad60c4834e6e"
          (reference "R7") (unit 1)
        )
      )
    )
  )

  (symbol (lib_id "power:GND") (at 203.2 109.22 0) (unit 1)
    (in_bom yes) (on_board yes) (dnp no) (fields_autoplaced)
    (uuid aab8157b-a1dd-445e-98f5-ddc9eaf8dfd7)
    (property "Reference" "#PWR05" (at 203.2 115.57 0)
      (effects (font (size 1.27 1.27)) hide)
    )
    (property "Value" "GND" (at 203.2 114.3 0)
      (effects (font (size 1.27 1.27)))
    )
    (property "Footprint" "" (at 203.2 109.22 0)
      (effects (font (size 1.27 1.27)) hide)
    )
    (property "Datasheet" "" (at 203.2 109.22 0)
      (effects (font (size 1.27 1.27)) hide)
    )
    (pin "1" (uuid f30a9a48-003d-40a3-b28f-5c400600b349))
    (instances
      (project "vhs-rf-amp-sgm8302"
        (path "/852f29eb-415c-4d8a-93d8-ad60c4834e6e"
          (reference "#PWR05") (unit 1)
        )
      )
    )
  )

  (symbol (lib_id "Connector:Conn_01x01_Pin") (at 48.26 147.32 0) (unit 1)
    (in_bom yes) (on_board yes) (dnp no)
    (uuid aafc9941-e562-495e-b377-6b70411395ab)
    (property "Reference" "J7" (at 45.72 147.32 0)
      (effects (font (size 1.27 1.27)))
    )
    (property "Value" "Conn_01x01_Pin" (at 35.56 147.32 0)
      (effects (font (size 1.27 1.27)))
    )
    (property "Footprint" "Connector_PinHeader_2.54mm:PinHeader_1x01_P2.54mm_Vertical" (at 48.26 147.32 0)
      (effects (font (size 1.27 1.27)) hide)
    )
    (property "Datasheet" "~" (at 48.26 147.32 0)
      (effects (font (size 1.27 1.27)) hide)
    )
    (pin "1" (uuid b05c68c5-5e2d-47a8-aaed-077935895457))
    (instances
      (project "vhs-rf-amp-sgm8302"
        (path "/852f29eb-415c-4d8a-93d8-ad60c4834e6e"
          (reference "J7") (unit 1)
        )
      )
    )
  )

  (symbol (lib_id "Device:C") (at 64.77 45.72 0) (unit 1)
    (in_bom yes) (on_board yes) (dnp no) (fields_autoplaced)
    (uuid acb3b523-e199-4626-8e9a-9f01cfa79650)
    (property "Reference" "C3" (at 68.58 44.45 0)
      (effects (font (size 1.27 1.27)) (justify left))
    )
    (property "Value" "1u" (at 68.58 46.99 0)
      (effects (font (size 1.27 1.27)) (justify left))
    )
    (property "Footprint" "Capacitor_SMD:C_0805_2012Metric_Pad1.18x1.45mm_HandSolder" (at 65.7352 49.53 0)
      (effects (font (size 1.27 1.27)) hide)
    )
    (property "Datasheet" "~" (at 64.77 45.72 0)
      (effects (font (size 1.27 1.27)) hide)
    )
    (pin "1" (uuid 6754fc0d-836e-4e45-a395-62dabe1fe334))
    (pin "2" (uuid fd1f7f98-ada2-4dec-80f9-8327b9253eb6))
    (instances
      (project "vhs-rf-amp-sgm8302"
        (path "/852f29eb-415c-4d8a-93d8-ad60c4834e6e"
          (reference "C3") (unit 1)
        )
      )
    )
  )

  (symbol (lib_id "power:PWR_FLAG") (at 54.61 50.8 0) (unit 1)
    (in_bom yes) (on_board yes) (dnp no) (fields_autoplaced)
    (uuid acdc2870-d277-47e9-b76f-1f0b98337f96)
    (property "Reference" "#FLG03" (at 54.61 48.895 0)
      (effects (font (size 1.27 1.27)) hide)
    )
    (property "Value" "PWR_FLAG" (at 54.61 45.72 0)
      (effects (font (size 1.27 1.27)))
    )
    (property "Footprint" "" (at 54.61 50.8 0)
      (effects (font (size 1.27 1.27)) hide)
    )
    (property "Datasheet" "~" (at 54.61 50.8 0)
      (effects (font (size 1.27 1.27)) hide)
    )
    (pin "1" (uuid 82cc114a-b3ba-4a25-a58a-a33e5243a1b1))
    (instances
      (project "vhs-rf-amp-sgm8302"
        (path "/852f29eb-415c-4d8a-93d8-ad60c4834e6e"
          (reference "#FLG03") (unit 1)
        )
      )
    )
  )

  (symbol (lib_id "Connector:Conn_01x01_Pin") (at 48.26 121.92 0) (unit 1)
    (in_bom yes) (on_board yes) (dnp no)
    (uuid bcfef6e6-c8c9-4f5c-b557-352901e05c51)
    (property "Reference" "J6" (at 45.72 121.92 0)
      (effects (font (size 1.27 1.27)))
    )
    (property "Value" "Conn_01x01_Pin" (at 35.56 121.92 0)
      (effects (font (size 1.27 1.27)))
    )
    (property "Footprint" "Connector_PinHeader_2.54mm:PinHeader_1x01_P2.54mm_Vertical" (at 48.26 121.92 0)
      (effects (font (size 1.27 1.27)) hide)
    )
    (property "Datasheet" "~" (at 48.26 121.92 0)
      (effects (font (size 1.27 1.27)) hide)
    )
    (pin "1" (uuid 88e92e11-3898-4bbb-9ae0-1a60c2c824f8))
    (instances
      (project "vhs-rf-amp-sgm8302"
        (path "/852f29eb-415c-4d8a-93d8-ad60c4834e6e"
          (reference "J6") (unit 1)
        )
      )
    )
  )

  (symbol (lib_id "Connector:Conn_Coaxial") (at 58.42 139.7 0) (mirror y) (unit 1)
    (in_bom yes) (on_board yes) (dnp no)
    (uuid bde30e5f-4ca8-4915-832d-0db9b3af7d4a)
    (property "Reference" "J2" (at 54.61 139.7 0)
      (effects (font (size 1.27 1.27)) (justify left))
    )
    (property "Value" "Conn_Coaxial" (at 50.8 139.7 0)
      (effects (font (size 1.27 1.27)) (justify left))
    )
    (property "Footprint" "Connector_Coaxial:SMA_Samtec_SMA-J-P-X-ST-EM1_EdgeMount" (at 58.42 139.7 0)
      (effects (font (size 1.27 1.27)) hide)
    )
    (property "Datasheet" " ~" (at 58.42 139.7 0)
      (effects (font (size 1.27 1.27)) hide)
    )
    (pin "1" (uuid 9506004c-763e-4cbf-8cba-d449215ee00e))
    (pin "2" (uuid 47ad44c2-3a39-4e43-a3e1-960517f2cd41))
    (instances
      (project "vhs-rf-amp-sgm8302"
        (path "/852f29eb-415c-4d8a-93d8-ad60c4834e6e"
          (reference "J2") (unit 1)
        )
      )
    )
  )

  (symbol (lib_id "power:GND") (at 58.42 152.4 0) (unit 1)
    (in_bom yes) (on_board yes) (dnp no) (fields_autoplaced)
    (uuid c8e22695-20b0-4e7d-ad3d-35e85dc69953)
    (property "Reference" "#PWR02" (at 58.42 158.75 0)
      (effects (font (size 1.27 1.27)) hide)
    )
    (property "Value" "GND" (at 58.42 157.48 0)
      (effects (font (size 1.27 1.27)))
    )
    (property "Footprint" "" (at 58.42 152.4 0)
      (effects (font (size 1.27 1.27)) hide)
    )
    (property "Datasheet" "" (at 58.42 152.4 0)
      (effects (font (size 1.27 1.27)) hide)
    )
    (pin "1" (uuid bdae1f72-04a3-452a-9744-e27adca42dda))
    (instances
      (project "vhs-rf-amp-sgm8302"
        (path "/852f29eb-415c-4d8a-93d8-ad60c4834e6e"
          (reference "#PWR02") (unit 1)
        )
      )
    )
  )

  (symbol (lib_id "Device:C") (at 160.02 106.68 90) (unit 1)
    (in_bom yes) (on_board yes) (dnp no)
    (uuid cebc4fe5-9736-4488-87a3-37caacbd14a6)
    (property "Reference" "C8" (at 160.02 99.06 90)
      (effects (font (size 1.27 1.27)))
    )
    (property "Value" "100n" (at 160.02 101.6 90)
      (effects (font (size 1.27 1.27)))
    )
    (property "Footprint" "Capacitor_SMD:C_0805_2012Metric_Pad1.18x1.45mm_HandSolder" (at 163.83 105.7148 0)
      (effects (font (size 1.27 1.27)) hide)
    )
    (property "Datasheet" "~" (at 160.02 106.68 0)
      (effects (font (size 1.27 1.27)) hide)
    )
    (pin "1" (uuid 7b711c7f-f5d8-4816-93c2-a94b9cba941b))
    (pin "2" (uuid ea113ff1-749c-4cd8-a389-c2d4d7fd1ed1))
    (instances
      (project "vhs-rf-amp-sgm8302"
        (path "/852f29eb-415c-4d8a-93d8-ad60c4834e6e"
          (reference "C8") (unit 1)
        )
      )
    )
  )

  (symbol (lib_id "Connector:Conn_01x03_Pin") (at 33.02 50.8 0) (unit 1)
    (in_bom yes) (on_board yes) (dnp no) (fields_autoplaced)
    (uuid d001ad3a-dc6a-42d2-99db-3ea659a679f7)
    (property "Reference" "J1" (at 33.655 43.18 0)
      (effects (font (size 1.27 1.27)))
    )
    (property "Value" "Conn_01x03_Pin" (at 33.655 45.72 0)
      (effects (font (size 1.27 1.27)))
    )
    (property "Footprint" "Connector_PinHeader_2.54mm:PinHeader_1x03_P2.54mm_Vertical" (at 33.02 50.8 0)
      (effects (font (size 1.27 1.27)) hide)
    )
    (property "Datasheet" "~" (at 33.02 50.8 0)
      (effects (font (size 1.27 1.27)) hide)
    )
    (pin "1" (uuid 6640463e-d36f-449c-82e2-cbbe9ecc4a64))
    (pin "2" (uuid eb82185f-52bc-46da-bc4a-dfc221e1a3e0))
    (pin "3" (uuid fbe7c007-c572-45f6-9ccd-2ad30b46c9bb))
    (instances
      (project "vhs-rf-amp-sgm8302"
        (path "/852f29eb-415c-4d8a-93d8-ad60c4834e6e"
          (reference "J1") (unit 1)
        )
      )
    )
  )

  (symbol (lib_id "Device:R") (at 187.96 101.6 90) (unit 1)
    (in_bom yes) (on_board yes) (dnp no) (fields_autoplaced)
    (uuid d73738fc-a45e-4352-80d3-aff6941c749b)
    (property "Reference" "R1" (at 187.96 95.25 90)
      (effects (font (size 1.27 1.27)))
    )
    (property "Value" "75" (at 187.96 97.79 90)
      (effects (font (size 1.27 1.27)))
    )
    (property "Footprint" "Resistor_SMD:R_0805_2012Metric_Pad1.20x1.40mm_HandSolder" (at 187.96 103.378 90)
      (effects (font (size 1.27 1.27)) hide)
    )
    (property "Datasheet" "~" (at 187.96 101.6 0)
      (effects (font (size 1.27 1.27)) hide)
    )
    (pin "1" (uuid ec5776ac-58aa-4c91-a8b6-709453d29cd0))
    (pin "2" (uuid 57d3f27a-4550-4ed5-b42f-a58bf7350400))
    (instances
      (project "vhs-rf-amp-sgm8302"
        (path "/852f29eb-415c-4d8a-93d8-ad60c4834e6e"
          (reference "R1") (unit 1)
        )
      )
    )
  )

  (symbol (lib_id "Device:R") (at 161.29 124.46 0) (unit 1)
    (in_bom yes) (on_board yes) (dnp no)
    (uuid d7815361-74b8-4859-b2c3-5fdd2ebdca08)
    (property "Reference" "R8" (at 154.94 123.19 0)
      (effects (font (size 1.27 1.27)) (justify left))
    )
    (property "Value" "200" (at 154.94 125.73 0)
      (effects (font (size 1.27 1.27)) (justify left))
    )
    (property "Footprint" "Resistor_SMD:R_0805_2012Metric_Pad1.20x1.40mm_HandSolder" (at 159.512 124.46 90)
      (effects (font (size 1.27 1.27)) hide)
    )
    (property "Datasheet" "~" (at 161.29 124.46 0)
      (effects (font (size 1.27 1.27)) hide)
    )
    (pin "1" (uuid 6f89845c-6bbd-49f2-be52-be86a5e8d03f))
    (pin "2" (uuid 2b655aae-cc84-4fa2-8823-6735730a8ad8))
    (instances
      (project "vhs-rf-amp-sgm8302"
        (path "/852f29eb-415c-4d8a-93d8-ad60c4834e6e"
          (reference "R8") (unit 1)
        )
      )
    )
  )

  (symbol (lib_id "Device:R") (at 107.95 106.68 270) (unit 1)
    (in_bom yes) (on_board yes) (dnp no) (fields_autoplaced)
    (uuid d7ef0dd1-7c43-4067-ba49-e97d7a885184)
    (property "Reference" "R5" (at 107.95 100.33 90)
      (effects (font (size 1.27 1.27)))
    )
    (property "Value" "200" (at 107.95 102.87 90)
      (effects (font (size 1.27 1.27)))
    )
    (property "Footprint" "Resistor_SMD:R_0805_2012Metric_Pad1.20x1.40mm_HandSolder" (at 107.95 104.902 90)
      (effects (font (size 1.27 1.27)) hide)
    )
    (property "Datasheet" "~" (at 107.95 106.68 0)
      (effects (font (size 1.27 1.27)) hide)
    )
    (pin "1" (uuid 1e65332e-371b-4fc9-8dc1-01023bb9d850))
    (pin "2" (uuid 8d30b6d4-5548-4945-8d52-b49ea2ea7d67))
    (instances
      (project "vhs-rf-amp-sgm8302"
        (path "/852f29eb-415c-4d8a-93d8-ad60c4834e6e"
          (reference "R5") (unit 1)
        )
      )
    )
  )

  (symbol (lib_id "Connector:TestPoint") (at 97.79 40.64 0) (unit 1)
    (in_bom yes) (on_board yes) (dnp no) (fields_autoplaced)
    (uuid dd5f04dd-2be9-42f6-b9f0-fe32a5047bcc)
    (property "Reference" "TP1" (at 100.33 36.068 0)
      (effects (font (size 1.27 1.27)) (justify left))
    )
    (property "Value" "TestPoint" (at 100.33 38.608 0)
      (effects (font (size 1.27 1.27)) (justify left))
    )
    (property "Footprint" "TestPoint:TestPoint_Pad_D2.0mm" (at 102.87 40.64 0)
      (effects (font (size 1.27 1.27)) hide)
    )
    (property "Datasheet" "~" (at 102.87 40.64 0)
      (effects (font (size 1.27 1.27)) hide)
    )
    (pin "1" (uuid 91bf3be3-9883-4b5b-9466-de82dbc5adc8))
    (instances
      (project "vhs-rf-amp-sgm8302"
        (path "/852f29eb-415c-4d8a-93d8-ad60c4834e6e"
          (reference "TP1") (unit 1)
        )
      )
    )
  )

  (symbol (lib_id "Device:C") (at 73.66 114.3 270) (unit 1)
    (in_bom yes) (on_board yes) (dnp no) (fields_autoplaced)
    (uuid e6e4514b-d86a-4857-8b58-0067f20955cf)
    (property "Reference" "C2" (at 73.66 106.68 90)
      (effects (font (size 1.27 1.27)))
    )
    (property "Value" "1u" (at 73.66 109.22 90)
      (effects (font (size 1.27 1.27)))
    )
    (property "Footprint" "Capacitor_SMD:C_0805_2012Metric_Pad1.18x1.45mm_HandSolder" (at 69.85 115.2652 0)
      (effects (font (size 1.27 1.27)) hide)
    )
    (property "Datasheet" "~" (at 73.66 114.3 0)
      (effects (font (size 1.27 1.27)) hide)
    )
    (pin "1" (uuid 86097e72-ae7b-4513-b565-ba8dc320e1b8))
    (pin "2" (uuid ac551736-ca39-420e-9676-470b7acc921a))
    (instances
      (project "vhs-rf-amp-sgm8302"
        (path "/852f29eb-415c-4d8a-93d8-ad60c4834e6e"
          (reference "C2") (unit 1)
        )
      )
    )
  )

  (symbol (lib_id "Device:R") (at 87.63 143.51 180) (unit 1)
    (in_bom yes) (on_board yes) (dnp no) (fields_autoplaced)
    (uuid e7a936ea-947e-4333-8f34-88a45fb9df41)
    (property "Reference" "R4" (at 90.17 142.24 0)
      (effects (font (size 1.27 1.27)) (justify right))
    )
    (property "Value" "10k" (at 90.17 144.78 0)
      (effects (font (size 1.27 1.27)) (justify right))
    )
    (property "Footprint" "Resistor_SMD:R_0805_2012Metric_Pad1.20x1.40mm_HandSolder" (at 89.408 143.51 90)
      (effects (font (size 1.27 1.27)) hide)
    )
    (property "Datasheet" "~" (at 87.63 143.51 0)
      (effects (font (size 1.27 1.27)) hide)
    )
    (pin "1" (uuid 0b65afda-22b0-4373-9c66-36f968e9d945))
    (pin "2" (uuid 410104f3-2825-434f-9e31-242df5ae5504))
    (instances
      (project "vhs-rf-amp-sgm8302"
        (path "/852f29eb-415c-4d8a-93d8-ad60c4834e6e"
          (reference "R4") (unit 1)
        )
      )
    )
  )

  (symbol (lib_id "power:PWR_FLAG") (at 44.45 40.64 0) (unit 1)
    (in_bom yes) (on_board yes) (dnp no) (fields_autoplaced)
    (uuid e9b040ef-c461-4123-84d9-0aa3f3f448ab)
    (property "Reference" "#FLG01" (at 44.45 38.735 0)
      (effects (font (size 1.27 1.27)) hide)
    )
    (property "Value" "PWR_FLAG" (at 44.45 35.56 0)
      (effects (font (size 1.27 1.27)))
    )
    (property "Footprint" "" (at 44.45 40.64 0)
      (effects (font (size 1.27 1.27)) hide)
    )
    (property "Datasheet" "~" (at 44.45 40.64 0)
      (effects (font (size 1.27 1.27)) hide)
    )
    (pin "1" (uuid f4707e45-724a-4556-9b07-d5368f0100ce))
    (instances
      (project "vhs-rf-amp-sgm8302"
        (path "/852f29eb-415c-4d8a-93d8-ad60c4834e6e"
          (reference "#FLG01") (unit 1)
        )
      )
    )
  )

  (symbol (lib_id "Mechanical:MountingHole_Pad") (at 121.92 35.56 0) (unit 1)
    (in_bom yes) (on_board yes) (dnp no) (fields_autoplaced)
    (uuid eb3e60ac-947e-4793-99a4-80118515bccb)
    (property "Reference" "H1" (at 124.46 33.02 0)
      (effects (font (size 1.27 1.27)) (justify left))
    )
    (property "Value" "MountingHole_Pad" (at 124.46 35.56 0)
      (effects (font (size 1.27 1.27)) (justify left))
    )
    (property "Footprint" "MountingHole:MountingHole_3.2mm_M3_ISO14580_Pad_TopBottom" (at 121.92 35.56 0)
      (effects (font (size 1.27 1.27)) hide)
    )
    (property "Datasheet" "~" (at 121.92 35.56 0)
      (effects (font (size 1.27 1.27)) hide)
    )
    (pin "1" (uuid d856dabe-4c04-4660-aa00-03b17f51f6ce))
    (instances
      (project "vhs-rf-amp-sgm8302"
        (path "/852f29eb-415c-4d8a-93d8-ad60c4834e6e"
          (reference "H1") (unit 1)
        )
      )
    )
  )

  (symbol (lib_id "Connector:Conn_01x01_Pin") (at 213.36 107.95 180) (unit 1)
    (in_bom yes) (on_board yes) (dnp no)
    (uuid f05ead1e-6a1b-49da-8f01-542cef35da4b)
    (property "Reference" "J8" (at 215.9 107.95 0)
      (effects (font (size 1.27 1.27)))
    )
    (property "Value" "Conn_01x01_Pin" (at 226.06 107.95 0)
      (effects (font (size 1.27 1.27)))
    )
    (property "Footprint" "Connector_PinHeader_2.54mm:PinHeader_1x01_P2.54mm_Vertical" (at 213.36 107.95 0)
      (effects (font (size 1.27 1.27)) hide)
    )
    (property "Datasheet" "~" (at 213.36 107.95 0)
      (effects (font (size 1.27 1.27)) hide)
    )
    (pin "1" (uuid 729e1b1b-3c7d-4b29-ae01-abd14a516e7a))
    (instances
      (project "vhs-rf-amp-sgm8302"
        (path "/852f29eb-415c-4d8a-93d8-ad60c4834e6e"
          (reference "J8") (unit 1)
        )
      )
    )
  )

  (symbol (lib_id "Regulator_Linear:L7805") (at 86.36 40.64 0) (unit 1)
    (in_bom yes) (on_board yes) (dnp no) (fields_autoplaced)
    (uuid f19d4214-34c0-4eb0-a8ee-d770c97ab6fe)
    (property "Reference" "U1" (at 86.36 34.29 0)
      (effects (font (size 1.27 1.27)))
    )
    (property "Value" "L7805" (at 86.36 36.83 0)
      (effects (font (size 1.27 1.27)))
    )
    (property "Footprint" "Package_TO_SOT_THT:TO-220-3_Vertical" (at 86.995 44.45 0)
      (effects (font (size 1.27 1.27) italic) (justify left) hide)
    )
    (property "Datasheet" "http://www.st.com/content/ccc/resource/technical/document/datasheet/41/4f/b3/b0/12/d4/47/88/CD00000444.pdf/files/CD00000444.pdf/jcr:content/translations/en.CD00000444.pdf" (at 86.36 41.91 0)
      (effects (font (size 1.27 1.27)) hide)
    )
    (pin "1" (uuid 0655b9d2-7e31-44ee-aa02-1a4821b5ffe2))
    (pin "2" (uuid b91d31fd-aab5-44f4-a00f-9864e0623a8c))
    (pin "3" (uuid 8b283e0d-494c-4fb6-8698-c97bd45e5983))
    (instances
      (project "vhs-rf-amp-sgm8302"
        (path "/852f29eb-415c-4d8a-93d8-ad60c4834e6e"
          (reference "U1") (unit 1)
        )
      )
    )
  )

  (symbol (lib_id "power:PWR_FLAG") (at 44.45 64.77 180) (unit 1)
    (in_bom yes) (on_board yes) (dnp no) (fields_autoplaced)
    (uuid f8242d8a-1b19-4566-85a0-654875f33457)
    (property "Reference" "#FLG02" (at 44.45 66.675 0)
      (effects (font (size 1.27 1.27)) hide)
    )
    (property "Value" "PWR_FLAG" (at 44.45 69.85 0)
      (effects (font (size 1.27 1.27)))
    )
    (property "Footprint" "" (at 44.45 64.77 0)
      (effects (font (size 1.27 1.27)) hide)
    )
    (property "Datasheet" "~" (at 44.45 64.77 0)
      (effects (font (size 1.27 1.27)) hide)
    )
    (pin "1" (uuid 14c6fb7e-9710-4760-be15-4bcf423acc05))
    (instances
      (project "vhs-rf-amp-sgm8302"
        (path "/852f29eb-415c-4d8a-93d8-ad60c4834e6e"
          (reference "#FLG02") (unit 1)
        )
      )
    )
  )

  (symbol (lib_id "Device:C") (at 104.14 45.72 0) (unit 1)
    (in_bom yes) (on_board yes) (dnp no) (fields_autoplaced)
    (uuid f8d0553d-1931-4e00-98d8-621158d2b639)
    (property "Reference" "C6" (at 107.95 44.45 0)
      (effects (font (size 1.27 1.27)) (justify left))
    )
    (property "Value" "1u" (at 107.95 46.99 0)
      (effects (font (size 1.27 1.27)) (justify left))
    )
    (property "Footprint" "Capacitor_SMD:C_0805_2012Metric_Pad1.18x1.45mm_HandSolder" (at 105.1052 49.53 0)
      (effects (font (size 1.27 1.27)) hide)
    )
    (property "Datasheet" "~" (at 104.14 45.72 0)
      (effects (font (size 1.27 1.27)) hide)
    )
    (pin "1" (uuid f86918dd-3cbd-4c94-a848-1d741d89038f))
    (pin "2" (uuid e6b622ed-b53d-45d3-888f-29a2afb6742d))
    (instances
      (project "vhs-rf-amp-sgm8302"
        (path "/852f29eb-415c-4d8a-93d8-ad60c4834e6e"
          (reference "C6") (unit 1)
        )
      )
    )
  )

  (symbol (lib_id "Connector:Conn_Coaxial") (at 203.2 127 0) (unit 1)
    (in_bom yes) (on_board yes) (dnp no) (fields_autoplaced)
    (uuid fa09baa1-d600-4237-9ea9-770698b3a970)
    (property "Reference" "J4" (at 207.01 126.0232 0)
      (effects (font (size 1.27 1.27)) (justify left))
    )
    (property "Value" "Conn_Coaxial" (at 207.01 128.5632 0)
      (effects (font (size 1.27 1.27)) (justify left))
    )
    (property "Footprint" "Connector_Coaxial:SMA_Samtec_SMA-J-P-X-ST-EM1_EdgeMount" (at 203.2 127 0)
      (effects (font (size 1.27 1.27)) hide)
    )
    (property "Datasheet" " ~" (at 203.2 127 0)
      (effects (font (size 1.27 1.27)) hide)
    )
    (pin "1" (uuid 7036cd86-41c2-4902-84a6-625540ec95cf))
    (pin "2" (uuid 06cfca30-5191-4f61-b567-ee8a639a6344))
    (instances
      (project "vhs-rf-amp-sgm8302"
        (path "/852f29eb-415c-4d8a-93d8-ad60c4834e6e"
          (reference "J4") (unit 1)
        )
      )
    )
  )

  (sheet_instances
    (path "/" (page "1"))
  )
)
